<?xml version="1.0" ?>
<robot name="walle">
    <material name="blue">
        <color rgba="0.0 0.0 0.6 1" />
    </material>
    <material name="white">
        <color rgba="1 1 1 1" />
    </material>
    <material name="black">
        <color rgba="0 0 0 1" />
    </material>
    <link name="base_link">
        <visual>
            <geometry>
                <cylinder radius="0.35725" length="0.01" />
            </geometry>
            <material name="blue" />
        </visual>
        <collision>
            <geometry>
                <cylinder radius="0.35725" length="0.01" />
            </geometry>
        </collision>
        <inertial>
            <mass value="0.1" />
            <origin xyz="0 0 0" rpy="0 0 0" />
            <inertia ixx="0.03" iyy="0.03" izz="0.03" ixy="0.0" ixz="0.0" iyz="0.0" />
        </inertial>
    </link>
    <link name="arm_5">
        <visual>
            <geometry>
                <box size="0.10177 0.01542 0.1" />
            </geometry>
            <material name="blue" />
        </visual>
        <collision>
            <geometry>
                <box size="0.10177 0.01542 0.5" />
            </geometry>
        </collision>
        <inertial>
            <mass value="0.1" />
            <origin xyz="0 0 0" rpy="0 0 0" />
            <inertia ixx="0.03" iyy="0.03" izz="0.03" ixy="0.0" ixz="0.0" iyz="0.0" />
        </inertial>
    </link>
    <joint name="art_5" type="revolute">
        <parent link="base_link" />
        <child link="arm_5" />
        <axis xyz="0 0 1" />
        <origin xyz="0 0 0.055" />
        <limit lower="-1.5708" upper="1.5708" effort="10" velocity="1" />
    </joint>
    <link name="art4">
        <visual>
            <geometry>
                <cylinder radius="0.01" length="0.10177" />
            </geometry>
            <material name="black" />
        </visual>
        <collision>
            <geometry>
                <cylinder radius="0.01" length="0.10177" />
            </geometry>
        </collision>
        <inertial>
            <mass value="0.1" />
            <origin xyz="0 0 0" rpy="0 0 0" />
            <inertia ixx="0.03" iyy="0.03" izz="0.03" ixy="0.0" ixz="0.0" iyz="0.0" />
        </inertial>
    </link>
    <joint name="static4" type="revolute">
        <parent link="arm_5" />
        <child link="art4" />
        <axis xyz="0 0 1" />
        <origin rpy="0 1.55 0" xyz="0 0 0.01" />
        <limit lower="-3.14159" upper="3.14159" effort="10" velocity="1" />
    </joint>
    <link name="arm_4">
        <visual>
            <geometry>
                <box size="0.10177 0.01542 0.5" />
            </geometry>
            <material name="white" />
        </visual>
        <collision>
            <geometry>
                <box size="0.10177 0.01542 0.5" />
            </geometry>
        </collision>
        <inertial>
            <mass value="0.1" />
            <origin xyz="0 0 0" rpy="0 0 0" />
            <inertia ixx="0.03" iyy="0.03" izz="0.03" ixy="0.0" ixz="0.0" iyz="0.0" />
        </inertial>
    </link>
    <joint name="art_4" type="fixed">
        <parent link="art4" />
        <child link="arm_4" />
        <axis xyz="0 0 0" />
        <origin rpy="0 -1.55 0" xyz="-0.254 0 0.0055" />
    </joint>
    <link name="art3">
        <visual>
            <geometry>
                <cylinder radius="0.01" length="0.10177" />
            </geometry>
            <material name="black" />
        </visual>
        <collision>
            <geometry>
                <cylinder radius="0.01" length="0.10177" />
            </geometry>
        </collision>
        <inertial>
            <mass value="0.1" />
            <origin xyz="0 0 0" rpy="0 0 0" />
            <inertia ixx="0.03" iyy="0.03" izz="0.03" ixy="0.0" ixz="0.0" iyz="0.0" />
        </inertial>
    </link>
    <joint name="static3" type="revolute">
        <parent link="arm_4" />
        <child link="art3" />
        <axis xyz="0 0 1" />
        <origin rpy="0 1.55 0" xyz="0 0 0.25" />
        <limit lower="-3.14159" upper="3.14159" effort="10" velocity="1" />
    </joint>
    <link name="arm_3">
        <visual>
            <geometry>
                <box size="0.10177 0.01542 0.3" />
            </geometry>
            <material name="blue" />
        </visual>
        <collision>
            <geometry>
                <box size="0.10177 0.01542 0.3" />
            </geometry>
        </collision>
        <inertial>
            <mass value="0.1" />
            <origin xyz="0 0 0" rpy="0 0 0" />
            <inertia ixx="0.03" iyy="0.03" izz="0.03" ixy="0.0" ixz="0.0" iyz="0.0" />
        </inertial>
    </link>
    <joint name="art_3" type="fixed">
        <parent link="art3" />
        <child link="arm_3" />
        <axis xyz="0 0 0" />
        <origin rpy="0 -1.55 0" xyz="-0.15 0 0" />
    </joint>
    <link name="arm_2">
        <visual>
            <geometry>
                <box size="0.10177 0.01542 0.2" />
            </geometry>
            <material name="white" />
        </visual>
        <collision>
            <geometry>
                <box size="0.10177 0.01542 0.2" />
            </geometry>
        </collision>
        <inertial>
            <mass value="0.1" />
            <origin xyz="0 0 0" rpy="0 0 0" />
            <inertia ixx="0.03" iyy="0.03" izz="0.03" ixy="0.0" ixz="0.0" iyz="0.0" />
        </inertial>
    </link>
    <joint name="art_2" type="revolute">
        <parent link="arm_3" />
        <child link="arm_2" />
        <axis xyz="0 0 1" />
        <origin xyz="0 0 0.25" />
        <limit lower="-1.5708" upper="1.5708" effort="10" velocity="1" />
    </joint>
    <link name="art1">
        <visual>
            <geometry>
                <cylinder radius="0.01" length="0.10177" />
            </geometry>
            <material name="black" />
        </visual>
        <collision>
            <geometry>
                <cylinder radius="0.01" length="0.10177" />
            </geometry>
        </collision>
        <inertial>
            <mass value="0.1" />
            <origin xyz="0 0 0" rpy="0 0 0" />
            <inertia ixx="0.03" iyy="0.03" izz="0.03" ixy="0.0" ixz="0.0" iyz="0.0" />
        </inertial>
    </link>
    <joint name="static1" type="revolute">
        <parent link="arm_2" />
        <child link="art1" />
        <axis xyz="0 0 1" />
        <origin rpy="0 1.55 0" xyz="0 0 0.1" />
        <limit lower="-3.14159" upper="3.14159" effort="10" velocity="1" />
    </joint>
    <link name="arm_1">
        <visual>
            <geometry>
                <box size="0.10177 0.01542 0.15" />
            </geometry>
            <material name="blue" />
        </visual>
        <collision>
            <geometry>
                <box size="0.10177 0.01542 0.15" />
            </geometry>
        </collision>
        <inertial>
            <mass value="0.1" />
            <origin xyz="0 0 0" rpy="0 0 0" />
            <inertia ixx="0.03" iyy="0.03" izz="0.03" ixy="0.0" ixz="0.0" iyz="0.0" />
        </inertial>
    </link>
    <joint name="art_1" type="fixed">
        <parent link="art1" />
        <child link="arm_1" />
        <axis xyz="0 0 0" />
        <origin rpy="0 -1.55 0" xyz="-0.09 0 0" />
    </joint>
    <link name="left_gripper">
        <visual>
            <geometry>
                <box size="0.03 0.01542 0.1" />
            </geometry>
            <material name="black" />
        </visual>
        <collision>
            <geometry>
                <box size="0.03 0.01542 0.1" />
            </geometry>
        </collision>
        <inertial>
            <mass value="0.1" />
            <origin xyz="0 0 0" rpy="0 0 0" />
            <inertia ixx="0.03" iyy="0.03" izz="0.03" ixy="0.0" ixz="0.0" iyz="0.0" />
        </inertial>
    </link>
    <joint name="gripper_art_1" type="prismatic">
        <parent link="arm_1" />
        <child link="left_gripper" />
        <axis xyz="0 0 1" />
        <origin xyz="-0.03 0 0.13" />
        <limit lower="0" upper="0.1" effort="10" velocity="0.1" />
    </joint>
    <link name="right_gripper">
        <visual>
            <geometry>
                <box size="0.03 0.01542 0.1" />
            </geometry>
            <material name="black" />
        </visual>
        <collision>
            <geometry>
                <box size="0.03 0.01542 0.1" />
            </geometry>
        </collision>
        <inertial>
            <mass value="0.1" />
            <origin xyz="0 0 0" rpy="0 0 0" />
            <inertia ixx="0.03" iyy="0.03" izz="0.03" ixy="0.0" ixz="0.0" iyz="0.0" />
        </inertial>
    </link>
    <joint name="gripper_art_2" type="prismatic">
        <parent link="arm_1" />
        <child link="right_gripper" />
        <axis xyz="0 0 1" />
        <origin xyz="0.03 0 0.13" />
        <limit lower="-0.1" upper="0" effort="10" velocity="0.1" />
    </joint>
    <transmission name="trans_art_5">
        <type>transmission_interface/SimpleTransmission</type>
        <joint name="art_5">
            <hardwareInterface>hardware_interface/PositionJointInterface</hardwareInterface>
        </joint>
        <actuator name="art_5_motor">
            <hardwareInterface>hardware_interface/PositionJointInterface</hardwareInterface>
            <mechanicalReduction>1</mechanicalReduction>
        </actuator>
    </transmission>
    <transmission name="trans_static4">
        <type>transmission_interface/SimpleTransmission</type>
        <joint name="static4">
            <hardwareInterface>hardware_interface/PositionJointInterface</hardwareInterface>
        </joint>
        <actuator name="static4_motor">
            <hardwareInterface>hardware_interface/PositionJointInterface</hardwareInterface>
            <mechanicalReduction>1</mechanicalReduction>
        </actuator>
    </transmission>
    <transmission name="trans_static3">
        <type>transmission_interface/SimpleTransmission</type>
        <joint name="static3">
            <hardwareInterface>hardware_interface/PositionJointInterface</hardwareInterface>
        </joint>
        <actuator name="static3_motor">
            <hardwareInterface>hardware_interface/PositionJointInterface</hardwareInterface>
            <mechanicalReduction>1</mechanicalReduction>
        </actuator>
    </transmission>
    <transmission name="trans_art_2">
        <type>transmission_interface/SimpleTransmission</type>
        <joint name="art_2">
            <hardwareInterface>hardware_interface/PositionJointInterface</hardwareInterface>
        </joint>
        <actuator name="art_2_motor">
            <hardwareInterface>hardware_interface/PositionJointInterface</hardwareInterface>
            <mechanicalReduction>1</mechanicalReduction>
        </actuator>
    </transmission>
    <transmission name="trans_static1">
        <type>transmission_interface/SimpleTransmission</type>
        <joint name="static1">
            <hardwareInterface>hardware_interface/PositionJointInterface</hardwareInterface>
        </joint>
        <actuator name="static1_motor">
            <hardwareInterface>hardware_interface/PositionJointInterface</hardwareInterface>
            <mechanicalReduction>1</mechanicalReduction>
        </actuator>
    </transmission>
    <transmission name="trans_gripper_art_1">
        <type>transmission_interface/SimpleTransmission</type>
        <joint name="gripper_art_1">
            <hardwareInterface>hardware_interface/EffortJointInterface</hardwareInterface>
        </joint>
        <actuator name="gripper_art_1_motor">
            <hardwareInterface>hardware_interface/EffortJointInterface</hardwareInterface>
            <mechanicalReduction>1</mechanicalReduction>
        </actuator>
    </transmission>
    <transmission name="trans_gripper_art_2">
        <type>transmission_interface/SimpleTransmission</type>
        <joint name="gripper_art_2">
            <hardwareInterface>hardware_interface/EffortJointInterface</hardwareInterface>
        </joint>
        <actuator name="gripper_art_2_motor">
            <hardwareInterface>hardware_interface/EffortJointInterface</hardwareInterface>
            <mechanicalReduction>1</mechanicalReduction>
        </actuator>
    </transmission>
    <gazebo>
        <plugin name="gazebo_ros_control">
            <robotNamespace>/</robotNamespace>
        </plugin>
    </gazebo>
</robot>

